maquina/mux.vcd
$date
	Wed Oct 28 18:24:10 2020
$end
$version
	Icarus Verilog
$end
$timescale
	100ps
$end
$scope module BUF $end
$var wire 1 ! A $end
$var wire 1 " Y $end
$upscope $end
$scope module BancoPruebas $end
$var wire 2 # Umbrales_Ds_internos [1:0] $end
$var wire 2 $ Umbrales_MFs_internos [1:0] $end
$var wire 2 % Umbrales_VCs_internos [1:0] $end
$var wire 1 & reset $end
$var wire 1 ' init $end
$var wire 1 ( idle_out_E $end
$var wire 1 ) idle_out $end
$var wire 1 * error_out_E $end
$var wire 1 + error_out $end
$var wire 1 , clk $end
$var wire 1 - active_out_E $end
$var wire 1 . active_out $end
$var wire 2 / Umbrales_VCs [1:0] $end
$var wire 2 0 Umbrales_MFs [1:0] $end
$var wire 2 1 Umbrales_Ds [1:0] $end
$var wire 5 2 FIFO_errors [4:0] $end
$var wire 5 3 FIFO_empties [4:0] $end
$scope module cond1 $end
$var wire 1 & reset $end
$var wire 1 ' init $end
$var wire 1 , clk $end
$var wire 2 4 Umbrales_VCs [1:0] $end
$var wire 2 5 Umbrales_MFs [1:0] $end
$var wire 2 6 Umbrales_Ds [1:0] $end
$var wire 5 7 FIFO_errors [4:0] $end
$var wire 5 8 FIFO_empties [4:0] $end
$var reg 5 9 FIFO_errors_temp [4:0] $end
$var reg 2 : Umbrales_Ds_internos [1:0] $end
$var reg 2 ; Umbrales_Ds_internos_temp [1:0] $end
$var reg 2 < Umbrales_MFs_internos [1:0] $end
$var reg 2 = Umbrales_MFs_internos_temp [1:0] $end
$var reg 2 > Umbrales_VCs_internos [1:0] $end
$var reg 2 ? Umbrales_VCs_internos_temp [1:0] $end
$var reg 1 . active_out $end
$var reg 1 @ active_out_temp $end
$var reg 1 + error_out $end
$var reg 1 A error_out_temp $end
$var reg 5 B errors_out [4:0] $end
$var reg 5 C errors_out_temp [4:0] $end
$var reg 5 D estado [4:0] $end
$var reg 5 E estado_proximo [4:0] $end
$var reg 1 ) idle_out $end
$var reg 1 F idle_out_temp $end
$upscope $end
$scope module est1 $end
$var wire 2 G Umbrales_Ds_internos [1:0] $end
$var wire 2 H Umbrales_MFs_internos [1:0] $end
$var wire 2 I Umbrales_VCs_internos [1:0] $end
$var wire 1 & reset $end
$var wire 1 ' init $end
$var wire 1 J idle_out_E_temp $end
$var wire 1 ( idle_out_E $end
$var wire 5 K estado [4:0] $end
$var wire 5 L errors_out_E [4:0] $end
$var wire 1 M error_out_E_temp $end
$var wire 1 * error_out_E $end
$var wire 1 , clk $end
$var wire 1 N active_out_E_temp $end
$var wire 1 - active_out_E $end
$var wire 1 O _077_ $end
$var wire 1 P _076_ $end
$var wire 1 Q _075_ $end
$var wire 1 R _074_ $end
$var wire 1 S _073_ $end
$var wire 1 T _072_ $end
$var wire 1 U _071_ $end
$var wire 1 V _070_ $end
$var wire 1 W _069_ $end
$var wire 1 X _068_ $end
$var wire 1 Y _067_ $end
$var wire 1 Z _066_ $end
$var wire 1 [ _065_ $end
$var wire 1 \ _064_ $end
$var wire 1 ] _063_ $end
$var wire 1 ^ _062_ $end
$var wire 1 _ _061_ $end
$var wire 1 ` _060_ $end
$var wire 1 a _059_ $end
$var wire 1 b _058_ $end
$var wire 1 c _057_ $end
$var wire 1 d _056_ $end
$var wire 1 e _055_ $end
$var wire 1 f _054_ $end
$var wire 1 g _053_ $end
$var wire 1 h _052_ $end
$var wire 1 i _051_ $end
$var wire 1 j _050_ $end
$var wire 1 k _049_ $end
$var wire 1 l _048_ $end
$var wire 1 m _047_ $end
$var wire 1 n _046_ $end
$var wire 1 o _045_ $end
$var wire 1 p _044_ $end
$var wire 1 q _043_ $end
$var wire 1 r _042_ $end
$var wire 1 s _041_ $end
$var wire 1 t _040_ $end
$var wire 1 u _039_ $end
$var wire 1 v _038_ $end
$var wire 1 w _037_ $end
$var wire 1 x _036_ $end
$var wire 1 y _035_ $end
$var wire 1 z _034_ $end
$var wire 1 { _033_ $end
$var wire 1 | _032_ $end
$var wire 1 } _031_ $end
$var wire 1 ~ _030_ $end
$var wire 1 !" _029_ $end
$var wire 1 "" _028_ $end
$var wire 1 #" _027_ $end
$var wire 1 $" _026_ $end
$var wire 1 %" _025_ $end
$var wire 1 &" _024_ $end
$var wire 1 '" _023_ $end
$var wire 1 (" _022_ $end
$var wire 1 )" _021_ $end
$var wire 1 *" _020_ $end
$var wire 1 +" _019_ $end
$var wire 1 ," _018_ $end
$var wire 1 -" _017_ $end
$var wire 1 ." _016_ $end
$var wire 1 /" _015_ $end
$var wire 1 0" _014_ $end
$var wire 1 1" _013_ $end
$var wire 1 2" _012_ $end
$var wire 1 3" _011_ $end
$var wire 1 4" _010_ $end
$var wire 1 5" _009_ $end
$var wire 1 6" _008_ $end
$var wire 1 7" _007_ $end
$var wire 5 8" _006_ [4:0] $end
$var wire 1 9" _005_ $end
$var wire 1 :" _004_ $end
$var wire 2 ;" _003_ [1:0] $end
$var wire 2 <" _002_ [1:0] $end
$var wire 2 =" _001_ [1:0] $end
$var wire 5 >" _000_ [4:0] $end
$var wire 2 ?" Umbrales_VCs [1:0] $end
$var wire 2 @" Umbrales_MFs [1:0] $end
$var wire 2 A" Umbrales_Ds [1:0] $end
$var wire 5 B" FIFO_errors_temp [4:0] $end
$var wire 5 C" FIFO_errors [4:0] $end
$var wire 5 D" FIFO_empties [4:0] $end
$scope module _078_ $end
$var wire 1 E" A $end
$var wire 1 o Y $end
$upscope $end
$scope module _079_ $end
$var wire 1 o B $end
$var wire 1 s Y $end
$var wire 1 & A $end
$upscope $end
$scope module _080_ $end
$var wire 1 n Y $end
$var wire 1 & A $end
$upscope $end
$scope module _081_ $end
$var wire 1 m Y $end
$var wire 1 ' A $end
$upscope $end
$scope module _082_ $end
$var wire 1 F" A $end
$var wire 1 G" B $end
$var wire 1 l Y $end
$upscope $end
$scope module _083_ $end
$var wire 1 l A $end
$var wire 1 k Y $end
$upscope $end
$scope module _084_ $end
$var wire 1 k A $end
$var wire 1 H" B $end
$var wire 1 j Y $end
$upscope $end
$scope module _085_ $end
$var wire 1 j A $end
$var wire 1 m B $end
$var wire 1 i Y $end
$upscope $end
$scope module _086_ $end
$var wire 1 i A $end
$var wire 1 I" B $end
$var wire 1 h Y $end
$upscope $end
$scope module _087_ $end
$var wire 1 h A $end
$var wire 1 n B $end
$var wire 1 r Y $end
$upscope $end
$scope module _088_ $end
$var wire 1 J" A $end
$var wire 1 K" B $end
$var wire 1 g Y $end
$upscope $end
$scope module _089_ $end
$var wire 1 L" A $end
$var wire 1 f Y $end
$upscope $end
$scope module _090_ $end
$var wire 1 M" A $end
$var wire 1 e Y $end
$upscope $end
$scope module _091_ $end
$var wire 1 e A $end
$var wire 1 f B $end
$var wire 1 d Y $end
$upscope $end
$scope module _092_ $end
$var wire 1 d A $end
$var wire 1 N" B $end
$var wire 1 c Y $end
$upscope $end
$scope module _093_ $end
$var wire 1 c A $end
$var wire 1 g B $end
$var wire 1 b Y $end
$upscope $end
$scope module _094_ $end
$var wire 1 O" A $end
$var wire 1 a Y $end
$upscope $end
$scope module _095_ $end
$var wire 1 P" A $end
$var wire 1 ` Y $end
$upscope $end
$scope module _096_ $end
$var wire 1 ` A $end
$var wire 1 a B $end
$var wire 1 _ Y $end
$upscope $end
$scope module _097_ $end
$var wire 1 Q" A $end
$var wire 1 ^ Y $end
$upscope $end
$scope module _098_ $end
$var wire 1 R" A $end
$var wire 1 S" B $end
$var wire 1 ] Y $end
$upscope $end
$scope module _099_ $end
$var wire 1 ] A $end
$var wire 1 ^ B $end
$var wire 1 \ Y $end
$upscope $end
$scope module _100_ $end
$var wire 1 \ A $end
$var wire 1 _ B $end
$var wire 1 [ Y $end
$upscope $end
$scope module _101_ $end
$var wire 1 n A $end
$var wire 1 Z Y $end
$var wire 1 ' B $end
$upscope $end
$scope module _102_ $end
$var wire 1 Z A $end
$var wire 1 k B $end
$var wire 1 Y Y $end
$upscope $end
$scope module _103_ $end
$var wire 1 Y A $end
$var wire 1 X Y $end
$upscope $end
$scope module _104_ $end
$var wire 1 X A $end
$var wire 1 [ B $end
$var wire 1 W Y $end
$upscope $end
$scope module _105_ $end
$var wire 1 W A $end
$var wire 1 b B $end
$var wire 1 q Y $end
$upscope $end
$scope module _106_ $end
$var wire 1 Z A $end
$var wire 1 T" B $end
$var wire 1 V Y $end
$upscope $end
$scope module _107_ $end
$var wire 1 U" A $end
$var wire 1 V" B $end
$var wire 1 U Y $end
$upscope $end
$scope module _108_ $end
$var wire 1 _ A $end
$var wire 1 W" B $end
$var wire 1 T Y $end
$upscope $end
$scope module _109_ $end
$var wire 1 T A $end
$var wire 1 U B $end
$var wire 1 S Y $end
$upscope $end
$scope module _110_ $end
$var wire 1 Y A $end
$var wire 1 S B $end
$var wire 1 R Y $end
$upscope $end
$scope module _111_ $end
$var wire 1 R A $end
$var wire 1 b B $end
$var wire 1 Q Y $end
$upscope $end
$scope module _112_ $end
$var wire 1 Q A $end
$var wire 1 V B $end
$var wire 1 p Y $end
$upscope $end
$scope module _113_ $end
$var wire 1 n A $end
$var wire 1 a B $end
$var wire 1 X" Y $end
$upscope $end
$scope module _114_ $end
$var wire 1 n A $end
$var wire 1 ` B $end
$var wire 1 Y" Y $end
$upscope $end
$scope module _115_ $end
$var wire 1 Z" A $end
$var wire 1 P Y $end
$upscope $end
$scope module _116_ $end
$var wire 1 n A $end
$var wire 1 P B $end
$var wire 1 [" Y $end
$upscope $end
$scope module _117_ $end
$var wire 1 \" A $end
$var wire 1 O Y $end
$upscope $end
$scope module _118_ $end
$var wire 1 n A $end
$var wire 1 O B $end
$var wire 1 ]" Y $end
$upscope $end
$scope module _119_ $end
$var wire 1 n A $end
$var wire 1 ^ B $end
$var wire 1 ^" Y $end
$upscope $end
$scope module _120_ $end
$var wire 1 _" A $end
$var wire 1 6" Y $end
$upscope $end
$scope module _121_ $end
$var wire 1 n A $end
$var wire 1 6" B $end
$var wire 1 7" Y $end
$upscope $end
$scope module _122_ $end
$var wire 1 `" A $end
$var wire 1 5" Y $end
$upscope $end
$scope module _123_ $end
$var wire 1 n A $end
$var wire 1 5" B $end
$var wire 1 :" Y $end
$upscope $end
$scope module _124_ $end
$var wire 1 a" A $end
$var wire 1 4" Y $end
$upscope $end
$scope module _125_ $end
$var wire 1 b" B $end
$var wire 1 3" Y $end
$var wire 1 & A $end
$upscope $end
$scope module _126_ $end
$var wire 1 3" A $end
$var wire 1 4" B $end
$var wire 1 c" Y $end
$upscope $end
$scope module _127_ $end
$var wire 1 d" A $end
$var wire 1 2" Y $end
$upscope $end
$scope module _128_ $end
$var wire 1 3" A $end
$var wire 1 2" B $end
$var wire 1 e" Y $end
$upscope $end
$scope module _129_ $end
$var wire 1 f" A $end
$var wire 1 1" Y $end
$upscope $end
$scope module _130_ $end
$var wire 1 3" A $end
$var wire 1 1" B $end
$var wire 1 g" Y $end
$upscope $end
$scope module _131_ $end
$var wire 1 h" A $end
$var wire 1 /" Y $end
$upscope $end
$scope module _132_ $end
$var wire 1 3" A $end
$var wire 1 /" B $end
$var wire 1 i" Y $end
$upscope $end
$scope module _133_ $end
$var wire 1 j" A $end
$var wire 1 ." Y $end
$upscope $end
$scope module _134_ $end
$var wire 1 3" A $end
$var wire 1 ." B $end
$var wire 1 k" Y $end
$upscope $end
$scope module _135_ $end
$var wire 1 3" A $end
$var wire 1 9" Y $end
$upscope $end
$scope module _136_ $end
$var wire 1 l" A $end
$var wire 1 m" B $end
$var wire 1 -" Y $end
$upscope $end
$scope module _137_ $end
$var wire 1 n" A $end
$var wire 1 ," Y $end
$upscope $end
$scope module _138_ $end
$var wire 1 ," A $end
$var wire 1 o" B $end
$var wire 1 +" Y $end
$upscope $end
$scope module _139_ $end
$var wire 1 +" A $end
$var wire 1 *" Y $end
$var wire 1 & B $end
$upscope $end
$scope module _140_ $end
$var wire 1 *" A $end
$var wire 1 -" B $end
$var wire 1 p" Y $end
$upscope $end
$scope module _141_ $end
$var wire 1 q" A $end
$var wire 1 r" B $end
$var wire 1 )" Y $end
$upscope $end
$scope module _142_ $end
$var wire 1 s" A $end
$var wire 1 (" Y $end
$upscope $end
$scope module _143_ $end
$var wire 1 (" A $end
$var wire 1 t" B $end
$var wire 1 '" Y $end
$upscope $end
$scope module _144_ $end
$var wire 1 '" A $end
$var wire 1 &" Y $end
$var wire 1 & B $end
$upscope $end
$scope module _145_ $end
$var wire 1 &" A $end
$var wire 1 )" B $end
$var wire 1 u" Y $end
$upscope $end
$scope module _146_ $end
$var wire 1 v" A $end
$var wire 1 w" B $end
$var wire 1 %" Y $end
$upscope $end
$scope module _147_ $end
$var wire 1 x" A $end
$var wire 1 $" Y $end
$upscope $end
$scope module _148_ $end
$var wire 1 $" A $end
$var wire 1 y" B $end
$var wire 1 #" Y $end
$upscope $end
$scope module _149_ $end
$var wire 1 #" A $end
$var wire 1 "" Y $end
$var wire 1 & B $end
$upscope $end
$scope module _150_ $end
$var wire 1 "" A $end
$var wire 1 %" B $end
$var wire 1 z" Y $end
$upscope $end
$scope module _151_ $end
$var wire 1 {" A $end
$var wire 1 |" B $end
$var wire 1 !" Y $end
$upscope $end
$scope module _152_ $end
$var wire 1 }" A $end
$var wire 1 ~ Y $end
$upscope $end
$scope module _153_ $end
$var wire 1 ~ A $end
$var wire 1 ~" B $end
$var wire 1 } Y $end
$upscope $end
$scope module _154_ $end
$var wire 1 } A $end
$var wire 1 | Y $end
$var wire 1 & B $end
$upscope $end
$scope module _155_ $end
$var wire 1 | A $end
$var wire 1 !" B $end
$var wire 1 !# Y $end
$upscope $end
$scope module _156_ $end
$var wire 1 "# A $end
$var wire 1 ## B $end
$var wire 1 { Y $end
$upscope $end
$scope module _157_ $end
$var wire 1 $# A $end
$var wire 1 z Y $end
$upscope $end
$scope module _158_ $end
$var wire 1 z A $end
$var wire 1 %# B $end
$var wire 1 y Y $end
$upscope $end
$scope module _159_ $end
$var wire 1 y A $end
$var wire 1 x Y $end
$var wire 1 & B $end
$upscope $end
$scope module _160_ $end
$var wire 1 x A $end
$var wire 1 { B $end
$var wire 1 &# Y $end
$upscope $end
$scope module _161_ $end
$var wire 1 '# A $end
$var wire 1 (# B $end
$var wire 1 w Y $end
$upscope $end
$scope module _162_ $end
$var wire 1 )# A $end
$var wire 1 v Y $end
$upscope $end
$scope module _163_ $end
$var wire 1 v A $end
$var wire 1 *# B $end
$var wire 1 u Y $end
$upscope $end
$scope module _164_ $end
$var wire 1 u A $end
$var wire 1 t Y $end
$var wire 1 & B $end
$upscope $end
$scope module _165_ $end
$var wire 1 t A $end
$var wire 1 w B $end
$var wire 1 +# Y $end
$upscope $end
$scope module _166_ $end
$var wire 1 Y A $end
$var wire 1 [ B $end
$var wire 1 0" Y $end
$upscope $end
$scope module _167_ $end
$var wire 1 s D $end
$var wire 1 , C $end
$var reg 1 ,# Q $end
$upscope $end
$scope module _168_ $end
$var wire 1 0" D $end
$var wire 1 , C $end
$var reg 1 -# Q $end
$upscope $end
$scope module _169_ $end
$var wire 1 q D $end
$var wire 1 , C $end
$var reg 1 .# Q $end
$upscope $end
$scope module _170_ $end
$var wire 1 p D $end
$var wire 1 , C $end
$var reg 1 /# Q $end
$upscope $end
$scope module _171_ $end
$var wire 1 r D $end
$var wire 1 , C $end
$var reg 1 0# Q $end
$upscope $end
$scope module _172_ $end
$var wire 1 1# D $end
$var wire 1 , C $end
$var reg 1 2# Q $end
$upscope $end
$scope module _173_ $end
$var wire 1 3# D $end
$var wire 1 , C $end
$var reg 1 4# Q $end
$upscope $end
$scope module _174_ $end
$var wire 1 5# D $end
$var wire 1 , C $end
$var reg 1 6# Q $end
$upscope $end
$scope module _175_ $end
$var wire 1 7# D $end
$var wire 1 , C $end
$var reg 1 8# Q $end
$upscope $end
$scope module _176_ $end
$var wire 1 9# D $end
$var wire 1 , C $end
$var reg 1 :# Q $end
$upscope $end
$scope module _177_ $end
$var wire 1 ;# D $end
$var wire 1 , C $end
$var reg 1 <# Q $end
$upscope $end
$scope module _178_ $end
$var wire 1 9" D $end
$var wire 1 , C $end
$var reg 1 * Q $end
$upscope $end
$scope module _179_ $end
$var wire 1 =# D $end
$var wire 1 , C $end
$var reg 1 ># Q $end
$upscope $end
$scope module _180_ $end
$var wire 1 ?# D $end
$var wire 1 , C $end
$var reg 1 @# Q $end
$upscope $end
$scope module _181_ $end
$var wire 1 A# D $end
$var wire 1 , C $end
$var reg 1 B# Q $end
$upscope $end
$scope module _182_ $end
$var wire 1 C# D $end
$var wire 1 , C $end
$var reg 1 D# Q $end
$upscope $end
$scope module _183_ $end
$var wire 1 E# D $end
$var wire 1 , C $end
$var reg 1 F# Q $end
$upscope $end
$scope module _184_ $end
$var wire 1 :" D $end
$var wire 1 , C $end
$var reg 1 - Q $end
$upscope $end
$scope module _185_ $end
$var wire 1 7" D $end
$var wire 1 , C $end
$var reg 1 ( Q $end
$upscope $end
$scope module _186_ $end
$var wire 1 G# D $end
$var wire 1 , C $end
$var reg 1 H# Q $end
$upscope $end
$scope module _187_ $end
$var wire 1 I# D $end
$var wire 1 , C $end
$var reg 1 J# Q $end
$upscope $end
$scope module _188_ $end
$var wire 1 K# D $end
$var wire 1 , C $end
$var reg 1 L# Q $end
$upscope $end
$scope module _189_ $end
$var wire 1 M# D $end
$var wire 1 , C $end
$var reg 1 N# Q $end
$upscope $end
$scope module _190_ $end
$var wire 1 O# D $end
$var wire 1 , C $end
$var reg 1 P# Q $end
$upscope $end
$upscope $end
$scope module probador_ $end
$var wire 2 Q# Umbrales_Ds_internos [1:0] $end
$var wire 2 R# Umbrales_MFs_internos [1:0] $end
$var wire 2 S# Umbrales_VCs_internos [1:0] $end
$var wire 1 . active_out $end
$var wire 1 + error_out $end
$var wire 1 ) idle_out $end
$var reg 5 T# FIFO_empties [4:0] $end
$var reg 5 U# FIFO_errors [4:0] $end
$var reg 2 V# Umbrales_Ds [1:0] $end
$var reg 2 W# Umbrales_MFs [1:0] $end
$var reg 2 X# Umbrales_VCs [1:0] $end
$var reg 1 , clk $end
$var reg 1 ' init $end
$var reg 1 & reset $end
$upscope $end
$upscope $end
$scope module DFFSR $end
$var wire 1 Y# C $end
$var wire 1 Z# D $end
$var wire 1 [# R $end
$var wire 1 \# S $end
$var reg 1 ]# Q $end
$upscope $end
$enddefinitions $end
#0
$dumpvars
x]#
z\#
z[#
zZ#
zY#
b0 X#
b0 W#
b0 V#
b0 U#
b11111 T#
bx S#
bx R#
bx Q#
xP#
0O#
xN#
0M#
xL#
0K#
xJ#
0I#
xH#
0G#
xF#
0E#
xD#
0C#
xB#
0A#
x@#
0?#
x>#
0=#
x<#
0;#
x:#
09#
x8#
07#
x6#
05#
x4#
03#
x2#
01#
x0#
x/#
x.#
x-#
x,#
0+#
x*#
0)#
x(#
x'#
0&#
x%#
0$#
x##
x"#
0!#
x~"
0}"
x|"
x{"
0z"
xy"
0x"
xw"
xv"
0u"
xt"
0s"
xr"
xq"
0p"
xo"
0n"
xm"
xl"
0k"
xj"
0i"
xh"
0g"
xf"
0e"
xd"
0c"
xb"
xa"
x`"
x_"
0^"
0]"
0\"
0["
0Z"
0Y"
0X"
0W"
0V"
0U"
xT"
0S"
0R"
0Q"
0P"
0O"
1N"
1M"
1L"
1K"
1J"
xI"
xH"
xG"
xF"
xE"
b11111 D"
b0 C"
bx B"
b0 A"
b0 @"
b0 ?"
b0 >"
b0 ="
b0 <"
b0 ;"
0:"
09"
b0 8"
07"
x6"
x5"
x4"
13"
x2"
x1"
00"
x/"
x."
x-"
1,"
x+"
1*"
x)"
1("
x'"
1&"
x%"
1$"
x#"
1""
x!"
1~
x}
1|
x{
1z
xy
1x
xw
1v
xu
1t
1s
0r
0q
0p
xo
1n
1m
xl
xk
xj
0i
xh
0g
0f
0e
1d
0c
1b
1a
1`
0_
1^
1]
0\
1[
0Z
1Y
0X
1W
1V
1U
1T
0S
0R
1Q
1P
1O
xN
xM
bx L
bx K
xJ
bx I
bx H
bx G
0F
b1 E
bx D
b0 C
bx B
0A
0@
bx ?
bx >
bx =
bx <
bx ;
bx :
bx 9
b11111 8
b0 7
b0 6
b0 5
b0 4
b11111 3
b0 2
b0 1
b0 0
b0 /
x.
x-
0,
x+
x*
x)
x(
0'
0&
bx %
bx $
bx #
z"
z!
$end
#200
1j
0k
0h
1l
1u
1w
1y
1{
1}
1!"
1#"
1%"
1'"
1)"
1+"
1-"
1o
15"
16"
14"
12"
11"
1/"
1."
0l"
0q"
0v"
0{"
0"#
0'#
b10 E
b0 ;
b0 ?
b0 =
1I"
0M
0b"
0E"
0N
0`"
0F"
0J
0_"
0G"
0*#
0(#
0%#
0##
0~"
0|"
0y"
0w"
0t"
0r"
0o"
0m"
0T"
0H"
0a"
0d"
0f"
0h"
0j"
b0 9
0)
0.
b0 B
0+
b0 #
b0 G
b0 Q#
b0 :
b0 %
b0 I
b0 S#
b0 >
b0 $
b0 H
b0 R#
b0 <
b1 D
1,#
0-#
0.#
0/#
b1 K
00#
02#
04#
06#
08#
0:#
0<#
0*
0>#
0@#
0B#
0D#
b0 L
0F#
0-
0(
0H#
0J#
0L#
0N#
b0 B"
0P#
1,
#400
0,
#600
1,
#800
0,
#1000
1,
#1200
0,
#1400
1,
#1600
0,
#1800
1,
#2000
0,
#2200
1r
1Z
0,"
0~
0v
0z
0t
0x
0|
0""
0&"
0*"
0s
1n"
1}"
1)#
1$#
0n
b10 E
b1 1
b1 6
b1 A"
b1 V#
b10 /
b10 4
b10 ?"
b10 X#
b11 0
b11 5
b11 @"
b11 W#
1&
1,
#2400
0,
#2600
13#
11#
17#
05#
0;#
19#
0r
1+#
b11 <"
1&#
1!#
1""
b10 ;"
0z"
1&"
0u"
b1 ="
1p"
1p
1h
0w
0{
0!"
0#"
0%"
0'"
0)"
0-"
0V
0j
b100 E
b1 ;
b10 ?
b11 =
0I"
1*#
1(#
1%#
1##
1~"
1|"
1y"
1w"
1t"
1r"
1o"
1m"
1T"
1H"
b10 D
0,#
b10000 K
10#
1,
#2800
0,
#3000
0Q
0W
1R
1X
0Y
0""
0&"
1p
17"
1k
1#"
1%"
1'"
1)"
1V
0j
0l
06"
0*#
0(#
0%#
0##
0~"
0|"
0y"
0w"
0t"
0r"
0o"
0m"
0T"
0H"
1J
1_"
1G"
1l"
1{"
1F
1"#
1'#
1:#
18#
14#
12#
00#
b1000 K
1/#
b100 D
b1 #
b1 G
b1 Q#
b1 :
b10 %
b10 I
b10 S#
b10 >
b11 $
b11 H
b11 R#
b11 <
1,
#3200
0,
#3400
0p
1q
1Q
0b
1c
0d
1f
0L"
b1000 E
1F
1)
1(
b11011 3
b11011 8
b11011 D"
b11011 T#
1,
#3600
0,
#3800
07"
1:"
0("
1~
0$"
1z
16"
05"
1s"
0}"
1x"
0$#
0N"
0J
0_"
0G"
1N
1`"
1F"
1@
0F
b11 1
b11 6
b11 A"
b11 V#
b1 /
b1 4
b1 ?"
b1 X#
b10 0
b10 5
b10 @"
b10 W#
b1011 3
b1011 8
b1011 D"
b1011 T#
0/#
b100 K
1.#
b1000 D
1,
#4000
0,
#4200
0)
1.
1-
0(
1,
#4400
0,
#4600
0q
0R
1W
10"
1S
0[
0T
1I#
1_
b10 >"
1Y"
0`
1P"
b10000 E
1@
b10 2
b10 7
b10 C"
b10 U#
1,
#4800
0,
#5000
0q
1W
00"
0S
0X
1?#
1j
1Y
1[
1T
b10 8"
1e"
0I#
19"
1s
0:"
0k
0_
b0 >"
0Y"
03"
1l
0o
15"
02"
1`
1M
1b"
1E"
0N
0`"
0F"
1d"
0P"
b1 E
b10 C
1A
0@
b10 9
b10000 D
1-#
b10 K
0.#
b10 B"
1J#
b0 2
b0 7
b0 C"
b0 U#
1,
#5200
0,
#5400
0?#
1r
b0 8"
0e"
09"
0s
13"
0h
12"
1o
0d"
0M
0b"
0E"
1I"
b10 E
b0 C
0A
b0 B"
0J#
0-
b10 L
1@#
1*
0-#
b1 K
1,#
b1 D
b0 9
0.
b10 B
1+
1,
#5600
0,
#5800
01#
07#
b10 <"
0&#
0!#
15#
1;#
0r
1x
1|
b1 ;"
1z"
b11 ="
1u"
1p
1h
0y
0}
0%"
0)"
0V
0j
b100 E
b11 ;
b1 ?
b10 =
0I"
1*#
1(#
1%#
1##
1~"
1|"
1y"
1w"
1t"
1r"
1o"
1m"
1T"
1H"
b0 B
0+
b10 D
0,#
b10000 K
10#
0*
b0 L
0@#
1,
#6000
0,
#6200
1r
0h
0x
0|
0p
17"
1k
1i
1y
1}
1V
0j
0l
1!"
1{
0Z
06"
0m
0*#
0(#
0%#
0##
0~"
0|"
0y"
0w"
0t"
0r"
0o"
0m"
0T"
0H"
1J
1_"
1G"
1q"
1v"
0{"
b10 E
1F
0"#
1'
1<#
08#
16#
02#
00#
b1000 K
1/#
b100 D
b11 #
b11 G
b11 Q#
b11 :
b1 %
b1 I
b1 S#
b1 >
b10 $
b10 H
b10 R#
b10 <
1,
#6400
0,
#6600
0q
1W
0r
01#
07#
0R
1x
b10 <"
0&#
1|
b1 ;"
0!#
1p
0X
1h
07"
0k
1Y
1l
0y
0{
0}
0!"
0V
0i
16"
1Z
0J
0_"
0G"
1*#
1(#
1%#
1##
1~"
1|"
1y"
1w"
1t"
1r"
1o"
1m"
1T"
1H"
1m
b100 E
0F
1)
b10 D
0/#
b10000 K
10#
1(
0'
1,
#6800
0,
#7000
1q
0W
1R
1X
0Y
0x
0|
0p
17"
1k
1y
1{
1}
1!"
1V
0j
0l
06"
0*#
0(#
0%#
0##
0~"
0|"
0y"
0w"
0t"
0r"
0o"
0m"
0T"
0H"
1J
1_"
1G"
b1000 E
1F
0(
00#
b1000 K
1/#
b100 D
0)
1,
#7200
0,
#7400
1:"
07"
05"
16"
1@
0F
1N
1`"
1F"
0J
0_"
0G"
1)
b1000 D
1.#
b100 K
0/#
1(
1,
#7600
0,
#7800
0(
1-
0)
1.
1,
